\relax 
\@writefile{toc}{\contentsline {section}{\numberline {1}Introduction}{\thepage }}
\@writefile{toc}{\contentsline {section}{\numberline {2}Other Content Ect}{\thepage }}
\@writefile{toc}{\contentsline {section}{\numberline {3}Conclusions}{\thepage }}
